wave.vcd
$date
	Tue May 12 10:39:12 2026
$end
$version
	Icarus Verilog
$end
$timescale
	1ps
$end
$scope module tb_rv32i_single_cycle $end
$var reg 1 ! clk $end
$var reg 1 " reset $end
$scope module dut $end
$var wire 1 ! clk $end
$var wire 32 # pc_jump_reg [31:0] $end
$var wire 1 " reset $end
$var wire 1 $ zero $end
$var wire 32 % write_back_data [31:0] $end
$var wire 32 & rs2_data [31:0] $end
$var wire 5 ' rs2 [4:0] $end
$var wire 32 ( rs1_data [31:0] $end
$var wire 5 ) rs1 [4:0] $end
$var wire 2 * result_src [1:0] $end
$var wire 1 + reg_write $end
$var wire 5 , rd [4:0] $end
$var wire 32 - pc_plus4 [31:0] $end
$var wire 32 . pc_next [31:0] $end
$var wire 32 / pc_current [31:0] $end
$var wire 32 0 pc_branch [31:0] $end
$var wire 7 1 opcode [6:0] $end
$var wire 1 2 mem_write $end
$var wire 32 3 mem_read_data [31:0] $end
$var wire 1 4 mem_read $end
$var wire 1 5 jump $end
$var wire 1 6 jalr $end
$var wire 32 7 instruction [31:0] $end
$var wire 32 8 immediate [31:0] $end
$var wire 1 9 funct7b5 $end
$var wire 3 : funct3 [2:0] $end
$var wire 1 ; branch_taken $end
$var wire 1 < branch $end
$var wire 1 = alu_src $end
$var wire 32 > alu_result [31:0] $end
$var wire 2 ? alu_op [1:0] $end
$var wire 4 @ alu_ctrl [3:0] $end
$var wire 32 A alu_b [31:0] $end
$var parameter 120 B PROGRAM_FILE $end
$scope module alu_ctrl_unit $end
$var wire 3 C funct3 [2:0] $end
$var wire 1 9 funct7b5 $end
$var wire 2 D alu_op [1:0] $end
$var parameter 4 E ALU_ADD $end
$var parameter 4 F ALU_AND $end
$var parameter 4 G ALU_OR $end
$var parameter 4 H ALU_SLT $end
$var parameter 4 I ALU_SUB $end
$var parameter 4 J ALU_XOR $end
$var reg 4 K alu_ctrl [3:0] $end
$upscope $end
$scope module alu_src_mux $end
$var wire 32 L y [31:0] $end
$var wire 1 = sel $end
$var wire 32 M b [31:0] $end
$var wire 32 N a [31:0] $end
$var parameter 32 O WIDTH $end
$upscope $end
$scope module alu_unit $end
$var wire 4 P alu_ctrl [3:0] $end
$var wire 32 Q b [31:0] $end
$var wire 1 $ zero $end
$var wire 32 R a [31:0] $end
$var parameter 4 S ALU_ADD $end
$var parameter 4 T ALU_AND $end
$var parameter 4 U ALU_OR $end
$var parameter 4 V ALU_SLT $end
$var parameter 4 W ALU_SUB $end
$var parameter 4 X ALU_XOR $end
$var reg 32 Y result [31:0] $end
$upscope $end
$scope module branch_unit_inst $end
$var wire 3 Z funct3 [2:0] $end
$var wire 32 [ rs2_data [31:0] $end
$var wire 32 \ rs1_data [31:0] $end
$var wire 1 < branch $end
$var reg 1 ; branch_taken $end
$upscope $end
$scope module controller $end
$var wire 7 ] opcode [6:0] $end
$var reg 2 ^ alu_op [1:0] $end
$var reg 1 = alu_src $end
$var reg 1 < branch $end
$var reg 1 6 jalr $end
$var reg 1 5 jump $end
$var reg 1 4 mem_read $end
$var reg 1 2 mem_write $end
$var reg 1 + reg_write $end
$var reg 2 _ result_src [1:0] $end
$upscope $end
$scope module dmem $end
$var wire 32 ` address [31:0] $end
$var wire 1 ! clk $end
$var wire 1 4 mem_read $end
$var wire 1 2 mem_write $end
$var wire 32 a write_data [31:0] $end
$var wire 32 b read_data [31:0] $end
$var parameter 32 c MEM_SIZE $end
$var integer 32 d i [31:0] $end
$upscope $end
$scope module imem $end
$var wire 32 e instruction [31:0] $end
$var wire 32 f address [31:0] $end
$var parameter 32 g MEM_SIZE $end
$var parameter 120 h PROGRAM_FILE $end
$upscope $end
$scope module immgen $end
$var wire 32 i instruction [31:0] $end
$var wire 7 j opcode [6:0] $end
$var reg 32 k immediate [31:0] $end
$upscope $end
$scope module pc_adder $end
$var wire 32 l b [31:0] $end
$var wire 32 m y [31:0] $end
$var wire 32 n a [31:0] $end
$upscope $end
$scope module pc_inst $end
$var wire 1 ! clk $end
$var wire 32 o next_pc [31:0] $end
$var wire 1 " reset $end
$var reg 32 p pc_out [31:0] $end
$upscope $end
$scope module regfile $end
$var wire 1 ! clk $end
$var wire 5 q rd [4:0] $end
$var wire 1 + reg_write $end
$var wire 1 " reset $end
$var wire 5 r rs1 [4:0] $end
$var wire 5 s rs2 [4:0] $end
$var wire 32 t write_data [31:0] $end
$var wire 32 u read_data2 [31:0] $end
$var wire 32 v read_data1 [31:0] $end
$var integer 32 w i [31:0] $end
$upscope $end
$scope module writeback_mux $end
$var wire 32 x d0 [31:0] $end
$var wire 32 y d1 [31:0] $end
$var wire 32 z d2 [31:0] $end
$var wire 32 { d3 [31:0] $end
$var wire 2 | sel [1:0] $end
$var parameter 32 } WIDTH $end
$var reg 32 ~ y [31:0] $end
$upscope $end
$upscope $end
$upscope $end
$enddefinitions $end
$comment Show the parameter values. $end
$dumpall
b100000 }
b11011010110010101101101001011110111000001110010011011110110011101110010011000010110110100101110011011010110010101101101 h
b100000000 g
b100000000 c
b100 X
b1 W
b101 V
b11 U
b10 T
b0 S
b100000 O
b100 J
b1 I
b101 H
b11 G
b10 F
b0 E
b11011010110010101101101001011110111000001110010011011110110011101110010011000010110110100101110011011010110010101101101 B
$end
#0
$dumpvars
b100000 ~
b0 |
b100000 {
b100 z
b0 y
b100000 x
b100000 w
b0 v
b0 u
b100000 t
b0 s
b0 r
b1 q
b0 p
b100 o
b0 n
b100 m
b100 l
b100000 k
b10011 j
b10000000000000000010010011 i
b0 f
b10000000000000000010010011 e
b100000000 d
b0 b
b0 a
b100000 `
b0 _
b11 ^
b10011 ]
b0 \
b0 [
b0 Z
b100000 Y
b0 R
b100000 Q
b0 P
b0 N
b100000 M
b100000 L
b0 K
b11 D
b0 C
b100000 A
b0 @
b11 ?
b100000 >
1=
0<
0;
b0 :
09
b100000 8
b10000000000000000010010011 7
06
05
04
b0 3
02
b10011 1
b100000 0
b0 /
b100 .
b100 -
b1 ,
1+
b0 *
b0 )
b0 (
b0 '
b0 &
b100000 %
0$
b100000 #
1"
0!
$end
#5000
b100000 w
1!
#10000
0!
#15000
b11110 %
b11110 t
b11110 ~
b11110 >
b11110 Y
b11110 `
b11110 x
b1000 .
b1000 o
b11110 A
b11110 L
b11110 Q
b11110 #
b11110 8
b11110 M
b11110 k
b11110 {
b11110 '
b11110 s
b10 ,
b10 q
b1111000000000000100010011 7
b1111000000000000100010011 e
b1111000000000000100010011 i
b1000 -
b1000 m
b1000 z
b100010 0
b100 /
b100 f
b100 n
b100 p
1!
0"
#20000
0!
#25000
b111110 %
b111110 t
b111110 ~
b111110 >
b111110 Y
b111110 `
b111110 x
b1100 .
b1100 o
b100000 #
b11110 &
b11110 N
b11110 [
b11110 a
b11110 u
b100000 (
b100000 R
b100000 \
b100000 v
b10 ?
b10 D
b10 ^
0=
1+
b0 8
b0 M
b0 k
b0 {
b110011 j
b10 '
b10 s
b1 )
b1 r
b11 ,
b11 q
b110011 1
b110011 ]
b1000001000000110110011 7
b1000001000000110110011 e
b1000001000000110110011 i
b1100 -
b1100 m
b1100 z
b1000 0
b1000 /
b1000 f
b1000 n
b1000 p
1!
#30000
0!
#35000
b10 %
b10 t
b10 ~
b10 >
b10 Y
b10 `
b10 x
b10000 .
b10000 o
b1 @
b1 K
b1 P
19
b100 ,
b100 q
b1000000001000001000001000110011 7
b1000000001000001000001000110011 e
b1000000001000001000001000110011 i
b10000 -
b10000 m
b10000 z
b1100 0
b1100 /
b1100 f
b1100 n
b1100 p
1!
#40000
0!
#45000
b0 %
b0 t
b0 ~
1$
b0 >
b0 Y
b0 `
b0 x
b10100 .
b10100 o
b10 @
b10 K
b10 P
09
b111 :
b111 C
b111 Z
b101 ,
b101 q
b1000001111001010110011 7
b1000001111001010110011 e
b1000001111001010110011 i
b10100 -
b10100 m
b10100 z
b10000 0
b10000 /
b10000 f
b10000 n
b10000 p
1!
#50000
0!
#55000
b111110 %
b111110 t
b111110 ~
0$
b111110 >
b111110 Y
b111110 `
b111110 x
b11000 .
b11000 o
b11 @
b11 K
b11 P
b110 :
b110 C
b110 Z
b110 ,
b110 q
b1000001110001100110011 7
b1000001110001100110011 e
b1000001110001100110011 i
b11000 -
b11000 m
b11000 z
b10100 0
b10100 /
b10100 f
b10100 n
b10100 p
1!
#60000
0!
#65000
b11100 .
b11100 o
b100 @
b100 K
b100 P
b100 :
b100 C
b100 Z
b111 ,
b111 q
b1000001100001110110011 7
b1000001100001110110011 e
b1000001100001110110011 i
b11100 -
b11100 m
b11100 z
b11000 0
b11000 /
b11000 f
b11000 n
b11000 p
1!
#70000
0!
#75000
b1 %
b1 t
b1 ~
b100000 A
b100000 L
b100000 Q
b11110 #
0$
b1 >
b1 Y
b1 `
b1 x
b100000 .
b100000 o
b100000 &
b100000 N
b100000 [
b100000 a
b100000 u
b11110 (
b11110 R
b11110 \
b11110 v
b101 @
b101 K
b101 P
b1 '
b1 s
b10 )
b10 r
b10 :
b10 C
b10 Z
b1000 ,
b1000 q
b100010010010000110011 7
b100010010010000110011 e
b100010010010000110011 i
b100000 -
b100000 m
b100000 z
b11100 0
b11100 /
b11100 f
b11100 n
b11100 p
1!
#80000
0!
#85000
b1110000 %
b1110000 t
b1110000 ~
b1110000 >
b1110000 Y
b1110000 `
b1110000 x
b1110000 A
b1110000 L
b1110000 Q
b0 @
b0 K
b0 P
b100100 .
b100100 o
b1110000 #
b111110 &
b111110 N
b111110 [
b111110 a
b111110 u
b0 (
b0 R
b0 \
b0 v
12
1=
b0 ?
b0 D
b0 ^
0+
b1110000 8
b1110000 M
b1110000 k
b1110000 {
b100011 j
b11 '
b11 s
b0 )
b0 r
b10000 ,
b10000 q
b100011 1
b100011 ]
b110001100000010100000100011 7
b110001100000010100000100011 e
b110001100000010100000100011 i
b100100 -
b100100 m
b100100 z
b10010000 0
b100000 /
b100000 f
b100000 n
b100000 p
1!
#90000
0!
#95000
b111110 %
b111110 t
b111110 ~
b111110 3
b111110 b
b111110 y
b101000 .
b101000 o
b0 &
b0 N
b0 [
b0 a
b0 u
b1 *
b1 _
b1 |
14
1+
02
1=
b11 j
b10000 '
b10000 s
b1001 ,
b1001 q
b11 1
b11 ]
b111000000000010010010000011 7
b111000000000010010010000011 e
b111000000000010010010000011 i
b101000 -
b101000 m
b101000 z
b10010100 0
b100100 /
b100100 f
b100100 n
b100100 p
1!
#100000
0!
#105000
1$
b0 >
b0 Y
b0 `
b0 x
b0 3
b0 b
b0 y
b110000 .
b110000 o
b111110 A
b111110 L
b111110 Q
b1000110 #
b0 %
b0 t
b0 ~
b111110 &
b111110 N
b111110 [
b111110 a
b111110 u
b111110 (
b111110 R
b111110 \
b111110 v
b1 @
b1 K
b1 P
1;
b1 ?
b1 D
b1 ^
1<
b0 *
b0 _
b0 |
04
0=
0+
b1000 8
b1000 M
b1000 k
b1000 {
b1100011 j
b11 '
b11 s
b1001 )
b1001 r
b0 :
b0 C
b0 Z
b1000 ,
b1000 q
b1100011 1
b1100011 ]
b1101001000010001100011 7
b1101001000010001100011 e
b1101001000010001100011 i
b101100 -
b101100 m
b101100 z
b110000 0
b101000 /
b101000 f
b101000 n
b101000 p
1!
#110000
0!
#115000
b1 %
b1 t
b1 ~
0$
b1 >
b1 Y
b1 `
b1 x
b1 A
b1 L
b1 Q
b0 @
b0 K
b0 P
0;
b0 #
b100000 &
b100000 N
b100000 [
b100000 a
b100000 u
b0 (
b0 R
b0 \
b0 v
1=
1+
b11 ?
b11 D
b11 ^
0<
b110100 .
b110100 o
b1 8
b1 M
b1 k
b1 {
b10011 j
b1 '
b1 s
b0 )
b0 r
b1010 ,
b1010 q
b10011 1
b10011 ]
b100000000010100010011 7
b100000000010100010011 e
b100000000010100010011 i
b110100 -
b110100 m
b110100 z
b110001 0
b110000 /
b110000 f
b110000 n
b110000 p
1!
#120000
0!
#125000
b111100 .
b111100 o
b1000 #
b111000 %
b111000 t
b111000 ~
b1 &
b1 N
b1 [
b1 a
b1 u
b10 *
b10 _
b10 |
15
b0 ?
b0 D
b0 ^
0=
1+
b1000 8
b1000 M
b1000 k
b1000 {
b1101111 j
b1000 '
b1000 s
b1011 ,
b1011 q
b1101111 1
b1101111 ]
b100000000000010111101111 7
b100000000000010111101111 e
b100000000000010111101111 i
b111000 -
b111000 m
b111000 z
b111100 0
b110100 /
b110100 f
b110100 n
b110100 p
1!
#130000
0!
#135000
b1110000 >
b1110000 Y
b1110000 `
b1110000 x
b1110000 A
b1110000 L
b1110000 Q
b1110000 #
b0 &
b0 N
b0 [
b0 a
b0 u
b11 ?
b11 D
b11 ^
1=
b0 *
b0 _
b0 |
05
1+
b1110000 8
b1110000 M
b1110000 k
b1110000 {
b10011 j
b10000 '
b10000 s
b1101 ,
b1101 q
b10011 1
b10011 ]
b1000000 .
b1000000 o
b1110000 %
b1110000 t
b1110000 ~
b111000000000000011010010011 7
b111000000000000011010010011 e
b111000000000000011010010011 i
b1000000 -
b1000000 m
b1000000 z
b10101100 0
b111100 /
b111100 f
b111100 n
b111100 p
1!
#140000
0!
#145000
bx %
bx t
bx ~
x$
bx >
bx Y
bx `
bx x
b1000100 .
b1000100 o
bx A
bx L
bx Q
bx0 #
bx &
bx N
bx [
bx a
bx u
bx (
bx R
bx \
bx v
b0 ?
b0 D
b0 ^
0=
0+
b0 8
b0 M
b0 k
b0 {
bx j
x9
bx '
bx s
bx )
bx r
bx :
bx C
bx Z
bx ,
bx q
bx 1
bx ]
bx 7
bx e
bx i
b1000100 -
b1000100 m
b1000100 z
b1000000 0
b1000000 /
b1000000 f
b1000000 n
b1000000 p
1!
#150000
0!
#155000
b1001000 .
b1001000 o
b1001000 -
b1001000 m
b1001000 z
b1000100 0
b1000100 /
b1000100 f
b1000100 n
b1000100 p
1!
#160000
0!
#165000
b1001100 .
b1001100 o
b1001100 -
b1001100 m
b1001100 z
b1001000 0
b1001000 /
b1001000 f
b1001000 n
b1001000 p
1!
#170000
0!
#175000
b1010000 .
b1010000 o
b1010000 -
b1010000 m
b1010000 z
b1001100 0
b1001100 /
b1001100 f
b1001100 n
b1001100 p
1!
#180000
0!
#185000
b1010100 .
b1010100 o
b1010100 -
b1010100 m
b1010100 z
b1010000 0
b1010000 /
b1010000 f
b1010000 n
b1010000 p
1!
#190000
0!
#195000
b1011000 .
b1011000 o
b1011000 -
b1011000 m
b1011000 z
b1010100 0
b1010100 /
b1010100 f
b1010100 n
b1010100 p
1!
#200000
0!
#205000
b1011100 .
b1011100 o
b1011100 -
b1011100 m
b1011100 z
b1011000 0
b1011000 /
b1011000 f
b1011000 n
b1011000 p
1!
#210000
0!
#215000
b1100000 .
b1100000 o
b1100000 -
b1100000 m
b1100000 z
b1011100 0
b1011100 /
b1011100 f
b1011100 n
b1011100 p
1!
#220000
0!
#225000
b1100100 .
b1100100 o
b1100100 -
b1100100 m
b1100100 z
b1100000 0
b1100000 /
b1100000 f
b1100000 n
b1100000 p
1!
#230000
0!
#235000
b1101000 .
b1101000 o
b1101000 -
b1101000 m
b1101000 z
b1100100 0
b1100100 /
b1100100 f
b1100100 n
b1100100 p
1!
#240000
0!
#245000
b1101100 .
b1101100 o
b1101100 -
b1101100 m
b1101100 z
b1101000 0
b1101000 /
b1101000 f
b1101000 n
b1101000 p
1!
#250000
0!
#255000
b1110000 .
b1110000 o
b1110000 -
b1110000 m
b1110000 z
b1101100 0
b1101100 /
b1101100 f
b1101100 n
b1101100 p
1!
#260000
0!
#265000
b1110100 .
b1110100 o
b1110100 -
b1110100 m
b1110100 z
b1110000 0
b1110000 /
b1110000 f
b1110000 n
b1110000 p
1!
#270000
0!
#275000
b1111000 .
b1111000 o
b1111000 -
b1111000 m
b1111000 z
b1110100 0
b1110100 /
b1110100 f
b1110100 n
b1110100 p
1!
#280000
0!
#285000
b1111100 .
b1111100 o
b1111100 -
b1111100 m
b1111100 z
b1111000 0
b1111000 /
b1111000 f
b1111000 n
b1111000 p
1!
#290000
0!
#295000
b10000000 .
b10000000 o
b10000000 -
b10000000 m
b10000000 z
b1111100 0
b1111100 /
b1111100 f
b1111100 n
b1111100 p
1!
#300000
0!
#305000
b10000100 .
b10000100 o
b10000100 -
b10000100 m
b10000100 z
b10000000 0
b10000000 /
b10000000 f
b10000000 n
b10000000 p
1!
#310000
0!
#315000
b10001000 .
b10001000 o
b10001000 -
b10001000 m
b10001000 z
b10000100 0
b10000100 /
b10000100 f
b10000100 n
b10000100 p
1!
#320000
0!
#325000
b10001100 .
b10001100 o
b10001100 -
b10001100 m
b10001100 z
b10001000 0
b10001000 /
b10001000 f
b10001000 n
b10001000 p
1!
#330000
0!
#335000
b10010000 .
b10010000 o
b10010000 -
b10010000 m
b10010000 z
b10001100 0
b10001100 /
b10001100 f
b10001100 n
b10001100 p
1!
#340000
0!
#345000
b10010100 .
b10010100 o
b10010100 -
b10010100 m
b10010100 z
b10010000 0
b10010000 /
b10010000 f
b10010000 n
b10010000 p
1!
#350000
0!
#355000
b10011000 .
b10011000 o
b10011000 -
b10011000 m
b10011000 z
b10010100 0
b10010100 /
b10010100 f
b10010100 n
b10010100 p
1!
#360000
0!
#365000
b10011100 .
b10011100 o
b10011100 -
b10011100 m
b10011100 z
b10011000 0
b10011000 /
b10011000 f
b10011000 n
b10011000 p
1!
#370000
0!
#375000
b10100000 .
b10100000 o
b10100000 -
b10100000 m
b10100000 z
b10011100 0
b10011100 /
b10011100 f
b10011100 n
b10011100 p
1!
#380000
0!
#385000
b10100100 .
b10100100 o
b10100100 -
b10100100 m
b10100100 z
b10100000 0
b10100000 /
b10100000 f
b10100000 n
b10100000 p
1!
#390000
0!
#395000
b10101000 .
b10101000 o
b10101000 -
b10101000 m
b10101000 z
b10100100 0
b10100100 /
b10100100 f
b10100100 n
b10100100 p
1!
#400000
0!
#405000
b10101100 .
b10101100 o
b10101100 -
b10101100 m
b10101100 z
b10101000 0
b10101000 /
b10101000 f
b10101000 n
b10101000 p
1!
#410000
0!
#415000
b10110000 .
b10110000 o
b10110000 -
b10110000 m
b10110000 z
b10101100 0
b10101100 /
b10101100 f
b10101100 n
b10101100 p
1!
